INFSCI 2595 Spring 2022 Homework: 07
…
Get a glimpse of the structure of spline_matrices.

glimpse(spline_matrices)

## Rows: 25
## Columns: 2
## $ design_matrix <list> <<matrix[150 x 2]>>, <<matrix[150 x 4]>>, <<matrix[150 ~
## $ test_matrix   <list> <<matrix[50 x 2]>>, <<matrix[50 x 4]>>, <<matrix[50 x 6~

Display the elements of spline_matrices to the screen.

spline_matrices

## # A tibble: 25 x 2
##    design_matrix    test_matrix    
##    <list>           <list>         
##  1 <dbl [150 x 2]>  <dbl [50 x 2]> 
##  2 <dbl [150 x 4]>  <dbl [50 x 4]> 
##  3 <dbl [150 x 6]>  <dbl [50 x 6]> 
##  4 <dbl [150 x 8]>  <dbl [50 x 8]> 
##  5 <dbl [150 x 10]> <dbl [50 x 10]>
##  6 <dbl [150 x 12]> <dbl [50 x 12]>
##  7 <dbl [150 x 14]> <dbl [50 x 14]>
##  8 <dbl [150 x 16]> <dbl [50 x 16]>
##  9 <dbl [150 x 18]> <dbl [50 x 18]>
## 10 <dbl [150 x 20]> <dbl [50 x 20]>
## # ... with 15 more rows
…
